$date
	Sat Jul 11 11:10:56 2020
$end
$version
	Icarus Verilog
$end
$timescale
	1ps
$end
$scope module ShifterL_tb $end
$var wire 8 ! out [7:0] $end
$var reg 1 " clk $end
$var reg 8 # in [7:0] $end
$var reg 1 $ inLSB $end
$var reg 1 % load $end
$var reg 1 & shift $end
$scope module SHIFTERL $end
$var wire 1 " clk $end
$var wire 8 ' in [7:0] $end
$var wire 1 $ inLSB $end
$var wire 1 % load $end
$var wire 8 ( out [7:0] $end
$var wire 1 & shift $end
$var wire 1 ) shiftload $end
$var wire 8 * shifter [7:0] $end
$var wire 8 + next [7:0] $end
$scope module BIT0 $end
$var wire 1 " clk $end
$var wire 1 , in $end
$var wire 1 - out $end
$var wire 1 ) load $end
$var wire 1 . dffin $end
$scope module DFF $end
$var wire 1 " clk $end
$var wire 1 . in $end
$var reg 1 - out $end
$upscope $end
$scope module MUX $end
$var wire 1 - a $end
$var wire 1 , b $end
$var wire 1 ) sel $end
$var wire 1 / sb $end
$var wire 1 0 sa $end
$var wire 1 . out $end
$var wire 1 1 nsel $end
$scope module AND1 $end
$var wire 1 - a $end
$var wire 1 0 out $end
$var wire 1 1 b $end
$upscope $end
$scope module AND2 $end
$var wire 1 , a $end
$var wire 1 / out $end
$var wire 1 ) b $end
$upscope $end
$scope module NOT $end
$var wire 1 1 out $end
$var wire 1 ) in $end
$upscope $end
$scope module OR $end
$var wire 1 0 a $end
$var wire 1 / b $end
$var wire 1 . out $end
$upscope $end
$upscope $end
$upscope $end
$scope module BIT1 $end
$var wire 1 " clk $end
$var wire 1 2 in $end
$var wire 1 3 out $end
$var wire 1 ) load $end
$var wire 1 4 dffin $end
$scope module DFF $end
$var wire 1 " clk $end
$var wire 1 4 in $end
$var reg 1 3 out $end
$upscope $end
$scope module MUX $end
$var wire 1 3 a $end
$var wire 1 2 b $end
$var wire 1 ) sel $end
$var wire 1 5 sb $end
$var wire 1 6 sa $end
$var wire 1 4 out $end
$var wire 1 7 nsel $end
$scope module AND1 $end
$var wire 1 3 a $end
$var wire 1 6 out $end
$var wire 1 7 b $end
$upscope $end
$scope module AND2 $end
$var wire 1 2 a $end
$var wire 1 5 out $end
$var wire 1 ) b $end
$upscope $end
$scope module NOT $end
$var wire 1 7 out $end
$var wire 1 ) in $end
$upscope $end
$scope module OR $end
$var wire 1 6 a $end
$var wire 1 5 b $end
$var wire 1 4 out $end
$upscope $end
$upscope $end
$upscope $end
$scope module BIT2 $end
$var wire 1 " clk $end
$var wire 1 8 in $end
$var wire 1 9 out $end
$var wire 1 ) load $end
$var wire 1 : dffin $end
$scope module DFF $end
$var wire 1 " clk $end
$var wire 1 : in $end
$var reg 1 9 out $end
$upscope $end
$scope module MUX $end
$var wire 1 9 a $end
$var wire 1 8 b $end
$var wire 1 ) sel $end
$var wire 1 ; sb $end
$var wire 1 < sa $end
$var wire 1 : out $end
$var wire 1 = nsel $end
$scope module AND1 $end
$var wire 1 9 a $end
$var wire 1 < out $end
$var wire 1 = b $end
$upscope $end
$scope module AND2 $end
$var wire 1 8 a $end
$var wire 1 ; out $end
$var wire 1 ) b $end
$upscope $end
$scope module NOT $end
$var wire 1 = out $end
$var wire 1 ) in $end
$upscope $end
$scope module OR $end
$var wire 1 < a $end
$var wire 1 ; b $end
$var wire 1 : out $end
$upscope $end
$upscope $end
$upscope $end
$scope module BIT3 $end
$var wire 1 " clk $end
$var wire 1 > in $end
$var wire 1 ? out $end
$var wire 1 ) load $end
$var wire 1 @ dffin $end
$scope module DFF $end
$var wire 1 " clk $end
$var wire 1 @ in $end
$var reg 1 ? out $end
$upscope $end
$scope module MUX $end
$var wire 1 ? a $end
$var wire 1 > b $end
$var wire 1 ) sel $end
$var wire 1 A sb $end
$var wire 1 B sa $end
$var wire 1 @ out $end
$var wire 1 C nsel $end
$scope module AND1 $end
$var wire 1 ? a $end
$var wire 1 B out $end
$var wire 1 C b $end
$upscope $end
$scope module AND2 $end
$var wire 1 > a $end
$var wire 1 A out $end
$var wire 1 ) b $end
$upscope $end
$scope module NOT $end
$var wire 1 C out $end
$var wire 1 ) in $end
$upscope $end
$scope module OR $end
$var wire 1 B a $end
$var wire 1 A b $end
$var wire 1 @ out $end
$upscope $end
$upscope $end
$upscope $end
$scope module BIT4 $end
$var wire 1 " clk $end
$var wire 1 D in $end
$var wire 1 E out $end
$var wire 1 ) load $end
$var wire 1 F dffin $end
$scope module DFF $end
$var wire 1 " clk $end
$var wire 1 F in $end
$var reg 1 E out $end
$upscope $end
$scope module MUX $end
$var wire 1 E a $end
$var wire 1 D b $end
$var wire 1 ) sel $end
$var wire 1 G sb $end
$var wire 1 H sa $end
$var wire 1 F out $end
$var wire 1 I nsel $end
$scope module AND1 $end
$var wire 1 E a $end
$var wire 1 H out $end
$var wire 1 I b $end
$upscope $end
$scope module AND2 $end
$var wire 1 D a $end
$var wire 1 G out $end
$var wire 1 ) b $end
$upscope $end
$scope module NOT $end
$var wire 1 I out $end
$var wire 1 ) in $end
$upscope $end
$scope module OR $end
$var wire 1 H a $end
$var wire 1 G b $end
$var wire 1 F out $end
$upscope $end
$upscope $end
$upscope $end
$scope module BIT5 $end
$var wire 1 " clk $end
$var wire 1 J in $end
$var wire 1 K out $end
$var wire 1 ) load $end
$var wire 1 L dffin $end
$scope module DFF $end
$var wire 1 " clk $end
$var wire 1 L in $end
$var reg 1 K out $end
$upscope $end
$scope module MUX $end
$var wire 1 K a $end
$var wire 1 J b $end
$var wire 1 ) sel $end
$var wire 1 M sb $end
$var wire 1 N sa $end
$var wire 1 L out $end
$var wire 1 O nsel $end
$scope module AND1 $end
$var wire 1 K a $end
$var wire 1 N out $end
$var wire 1 O b $end
$upscope $end
$scope module AND2 $end
$var wire 1 J a $end
$var wire 1 M out $end
$var wire 1 ) b $end
$upscope $end
$scope module NOT $end
$var wire 1 O out $end
$var wire 1 ) in $end
$upscope $end
$scope module OR $end
$var wire 1 N a $end
$var wire 1 M b $end
$var wire 1 L out $end
$upscope $end
$upscope $end
$upscope $end
$scope module BIT6 $end
$var wire 1 " clk $end
$var wire 1 P in $end
$var wire 1 Q out $end
$var wire 1 ) load $end
$var wire 1 R dffin $end
$scope module DFF $end
$var wire 1 " clk $end
$var wire 1 R in $end
$var reg 1 Q out $end
$upscope $end
$scope module MUX $end
$var wire 1 Q a $end
$var wire 1 P b $end
$var wire 1 ) sel $end
$var wire 1 S sb $end
$var wire 1 T sa $end
$var wire 1 R out $end
$var wire 1 U nsel $end
$scope module AND1 $end
$var wire 1 Q a $end
$var wire 1 T out $end
$var wire 1 U b $end
$upscope $end
$scope module AND2 $end
$var wire 1 P a $end
$var wire 1 S out $end
$var wire 1 ) b $end
$upscope $end
$scope module NOT $end
$var wire 1 U out $end
$var wire 1 ) in $end
$upscope $end
$scope module OR $end
$var wire 1 T a $end
$var wire 1 S b $end
$var wire 1 R out $end
$upscope $end
$upscope $end
$upscope $end
$scope module BIT7 $end
$var wire 1 " clk $end
$var wire 1 V in $end
$var wire 1 W out $end
$var wire 1 ) load $end
$var wire 1 X dffin $end
$scope module DFF $end
$var wire 1 " clk $end
$var wire 1 X in $end
$var reg 1 W out $end
$upscope $end
$scope module MUX $end
$var wire 1 W a $end
$var wire 1 V b $end
$var wire 1 ) sel $end
$var wire 1 Y sb $end
$var wire 1 Z sa $end
$var wire 1 X out $end
$var wire 1 [ nsel $end
$scope module AND1 $end
$var wire 1 W a $end
$var wire 1 Z out $end
$var wire 1 [ b $end
$upscope $end
$scope module AND2 $end
$var wire 1 V a $end
$var wire 1 Y out $end
$var wire 1 ) b $end
$upscope $end
$scope module NOT $end
$var wire 1 [ out $end
$var wire 1 ) in $end
$upscope $end
$scope module OR $end
$var wire 1 Z a $end
$var wire 1 Y b $end
$var wire 1 X out $end
$upscope $end
$upscope $end
$upscope $end
$scope module MUX0 $end
$var wire 1 $ a $end
$var wire 1 \ b $end
$var wire 1 % sel $end
$var wire 1 ] sb $end
$var wire 1 ^ sa $end
$var wire 1 _ out $end
$var wire 1 ` nsel $end
$scope module AND1 $end
$var wire 1 $ a $end
$var wire 1 ^ out $end
$var wire 1 ` b $end
$upscope $end
$scope module AND2 $end
$var wire 1 \ a $end
$var wire 1 % b $end
$var wire 1 ] out $end
$upscope $end
$scope module NOT $end
$var wire 1 % in $end
$var wire 1 ` out $end
$upscope $end
$scope module OR $end
$var wire 1 ^ a $end
$var wire 1 ] b $end
$var wire 1 _ out $end
$upscope $end
$upscope $end
$scope module MUX1 $end
$var wire 1 a a $end
$var wire 1 b b $end
$var wire 1 % sel $end
$var wire 1 c sb $end
$var wire 1 d sa $end
$var wire 1 e out $end
$var wire 1 f nsel $end
$scope module AND1 $end
$var wire 1 a a $end
$var wire 1 d out $end
$var wire 1 f b $end
$upscope $end
$scope module AND2 $end
$var wire 1 b a $end
$var wire 1 % b $end
$var wire 1 c out $end
$upscope $end
$scope module NOT $end
$var wire 1 % in $end
$var wire 1 f out $end
$upscope $end
$scope module OR $end
$var wire 1 d a $end
$var wire 1 c b $end
$var wire 1 e out $end
$upscope $end
$upscope $end
$scope module MUX2 $end
$var wire 1 g a $end
$var wire 1 h b $end
$var wire 1 % sel $end
$var wire 1 i sb $end
$var wire 1 j sa $end
$var wire 1 k out $end
$var wire 1 l nsel $end
$scope module AND1 $end
$var wire 1 g a $end
$var wire 1 j out $end
$var wire 1 l b $end
$upscope $end
$scope module AND2 $end
$var wire 1 h a $end
$var wire 1 % b $end
$var wire 1 i out $end
$upscope $end
$scope module NOT $end
$var wire 1 % in $end
$var wire 1 l out $end
$upscope $end
$scope module OR $end
$var wire 1 j a $end
$var wire 1 i b $end
$var wire 1 k out $end
$upscope $end
$upscope $end
$scope module MUX3 $end
$var wire 1 m a $end
$var wire 1 n b $end
$var wire 1 % sel $end
$var wire 1 o sb $end
$var wire 1 p sa $end
$var wire 1 q out $end
$var wire 1 r nsel $end
$scope module AND1 $end
$var wire 1 m a $end
$var wire 1 p out $end
$var wire 1 r b $end
$upscope $end
$scope module AND2 $end
$var wire 1 n a $end
$var wire 1 % b $end
$var wire 1 o out $end
$upscope $end
$scope module NOT $end
$var wire 1 % in $end
$var wire 1 r out $end
$upscope $end
$scope module OR $end
$var wire 1 p a $end
$var wire 1 o b $end
$var wire 1 q out $end
$upscope $end
$upscope $end
$scope module MUX4 $end
$var wire 1 s a $end
$var wire 1 t b $end
$var wire 1 % sel $end
$var wire 1 u sb $end
$var wire 1 v sa $end
$var wire 1 w out $end
$var wire 1 x nsel $end
$scope module AND1 $end
$var wire 1 s a $end
$var wire 1 v out $end
$var wire 1 x b $end
$upscope $end
$scope module AND2 $end
$var wire 1 t a $end
$var wire 1 % b $end
$var wire 1 u out $end
$upscope $end
$scope module NOT $end
$var wire 1 % in $end
$var wire 1 x out $end
$upscope $end
$scope module OR $end
$var wire 1 v a $end
$var wire 1 u b $end
$var wire 1 w out $end
$upscope $end
$upscope $end
$scope module MUX5 $end
$var wire 1 y a $end
$var wire 1 z b $end
$var wire 1 % sel $end
$var wire 1 { sb $end
$var wire 1 | sa $end
$var wire 1 } out $end
$var wire 1 ~ nsel $end
$scope module AND1 $end
$var wire 1 y a $end
$var wire 1 | out $end
$var wire 1 ~ b $end
$upscope $end
$scope module AND2 $end
$var wire 1 z a $end
$var wire 1 % b $end
$var wire 1 { out $end
$upscope $end
$scope module NOT $end
$var wire 1 % in $end
$var wire 1 ~ out $end
$upscope $end
$scope module OR $end
$var wire 1 | a $end
$var wire 1 { b $end
$var wire 1 } out $end
$upscope $end
$upscope $end
$scope module MUX6 $end
$var wire 1 !" a $end
$var wire 1 "" b $end
$var wire 1 % sel $end
$var wire 1 #" sb $end
$var wire 1 $" sa $end
$var wire 1 %" out $end
$var wire 1 &" nsel $end
$scope module AND1 $end
$var wire 1 !" a $end
$var wire 1 $" out $end
$var wire 1 &" b $end
$upscope $end
$scope module AND2 $end
$var wire 1 "" a $end
$var wire 1 % b $end
$var wire 1 #" out $end
$upscope $end
$scope module NOT $end
$var wire 1 % in $end
$var wire 1 &" out $end
$upscope $end
$scope module OR $end
$var wire 1 $" a $end
$var wire 1 #" b $end
$var wire 1 %" out $end
$upscope $end
$upscope $end
$scope module MUX7 $end
$var wire 1 '" a $end
$var wire 1 (" b $end
$var wire 1 % sel $end
$var wire 1 )" sb $end
$var wire 1 *" sa $end
$var wire 1 +" out $end
$var wire 1 ," nsel $end
$scope module AND1 $end
$var wire 1 '" a $end
$var wire 1 *" out $end
$var wire 1 ," b $end
$upscope $end
$scope module AND2 $end
$var wire 1 (" a $end
$var wire 1 % b $end
$var wire 1 )" out $end
$upscope $end
$scope module NOT $end
$var wire 1 % in $end
$var wire 1 ," out $end
$upscope $end
$scope module OR $end
$var wire 1 *" a $end
$var wire 1 )" b $end
$var wire 1 +" out $end
$upscope $end
$upscope $end
$scope module OR $end
$var wire 1 & a $end
$var wire 1 % b $end
$var wire 1 ) out $end
$upscope $end
$upscope $end
$upscope $end
$enddefinitions $end
#0
$dumpvars
1,"
0+"
0*"
0)"
0("
0'"
1&"
0%"
0$"
0#"
0""
0!"
1~
0}
0|
0{
1z
0y
1x
0w
0v
0u
1t
0s
1r
0q
0p
0o
0n
0m
1l
0k
0j
0i
1h
0g
1f
0e
0d
0c
1b
0a
1`
0_
0^
0]
1\
1[
0Z
0Y
0X
0W
0V
1U
0T
0S
0R
0Q
0P
1O
0N
0M
0L
0K
0J
1I
0H
0G
0F
0E
0D
1C
0B
0A
0@
0?
0>
1=
0<
0;
0:
09
08
17
06
05
04
03
02
11
00
0/
0.
0-
0,
b0 +
b0 *
0)
b0 (
b110111 '
0&
0%
0$
b110111 #
0"
b0 !
$end
#1
1"
#2
0"
#3
1"
#4
1.
14
1:
1F
1L
1/
15
1;
1G
1M
1,
12
18
1D
1J
1_
1e
1k
1w
b110111 +
1}
0[
0U
0O
0I
0C
0=
07
01
1]
0`
1c
0f
1i
0l
0r
1u
0x
1{
0~
0&"
0,"
1)
0"
1%
#5
1"
#6
1P
1>
1%"
1q
1$"
1|
1p
1j
1d
1N
1!"
1H
1y
1<
1m
16
1g
10
1a
1K
1E
19
13
b110111 !
b110111 (
b110111 *
1-
0,
12
18
0D
1J
1L
1F
1:
14
1.
0_
1e
1k
0w
b1101110 +
1}
1[
1U
1O
0M
1I
0G
1C
1=
0;
17
05
11
0/
0]
1`
0c
1f
0i
1l
1r
0u
1x
0{
1~
1&"
1,"
0)
0"
0%
#7
1"
#8
0F
0.
1R
0N
0H
1@
0<
06
00
0[
0U
1S
0O
1M
0I
0C
1A
0=
1;
07
15
01
1)
0"
1&
#9
1"
#10
1X
0L
1F
04
1Y
0M
1G
05
1V
0J
1D
02
1+"
0}
1w
b11011100 +
0e
1*"
0|
1v
0d
1'"
0y
1s
0a
1Q
0E
1?
b1101110 !
b1101110 (
b1101110 *
0-
0"
#11
1"
#12
0:
1L
0R
0;
1M
0S
08
1J
0P
0k
1}
b10111000 +
0%"
0j
1|
0$"
0g
1y
0!"
03
1E
0K
b11011100 !
b11011100 (
b11011100 *
1W
0"
#13
1"
#14
0X
1R
0@
0Y
1S
0A
0V
1P
0>
0+"
1%"
b1110000 +
0q
0*"
1$"
0p
0'"
1!"
0m
0Q
1K
b10111000 !
b10111000 (
b10111000 *
09
0"
#15
1"
#16
0F
1X
0G
1Y
0D
1V
0w
b11100000 +
1+"
0v
1*"
0s
1'"
0?
1Q
b1110000 !
b1110000 (
b1110000 *
0W
0"
#17
1"
#18
0L
0M
0J
b11000000 +
0}
0|
0y
1W
b11100000 !
b11100000 (
b11100000 *
0E
0"
#19
1"
#20
0R
0S
0P
b10000000 +
0%"
0$"
0!"
b11000000 !
b11000000 (
b11000000 *
0K
0"
#21
1"
#22
0X
0Y
0V
b0 +
0+"
0*"
0'"
b10000000 !
b10000000 (
b10000000 *
0Q
0"
#23
1"
#24
b0 !
b0 (
b0 *
0W
0"
#25
1"
#26
0"
#27
1"
#28
1[
1U
1O
1I
1C
1=
17
11
0)
0"
0&
#29
1"
#30
0"
